BigContest2017
…
group_by(challenge,AVG_CALL_FREQ)%>%
  summarise(.,count=n(),pers=mean(TARGET,na.rm=TRUE))

## # A tibble: 907 x 3
##    AVG_CALL_FREQ count       pers
##            <int> <int>      <dbl>
##  1             0 16414 0.05580602
##  2             1   761 0.04336399
##  3             2   494 0.06072874
##  4             3   298 0.05369128
##  5             4   258 0.08139535
##  6             5   193 0.05181347
##  7             6   193 0.04145078
##  8             7   178 0.03370787
##  9             8   193 0.03626943
## 10             9   141 0.01418440
## # ... with 897 more rows
…
group_by(challenge,AVG_CALL_TIME)%>%
  summarise(.,count=n(),pers=mean(TARGET,na.rm=TRUE))

## # A tibble: 1,461 x 3
##    AVG_CALL_TIME count       pers
##            <int> <int>      <dbl>
##  1             0 10466 0.04691382
##  2             1   334 0.06287425
##  3             2   229 0.05676856
##  4             3   205 0.02926829
##  5             4   191 0.06282723
##  6             5   168 0.04761905
##  7             6   162 0.04320988
##  8             7   186 0.03763441
##  9             8   160 0.05625000
## 10             9   175 0.05714286
## # ... with 1,451 more rows
…
