EDA
…
group_by(data1,AVG_CALL_FREQ)%>%
  summarise(.,count=n(),pers=mean(TARGET,na.rm=TRUE))

## # A tibble: 907 x 3
##    AVG_CALL_FREQ count       pers
##            <int> <int>      <dbl>
##  1             0 16202 0.05591902
##  2             1   749 0.04405874
##  3             2   485 0.05979381
##  4             3   295 0.05423729
##  5             4   255 0.08235294
##  6             5   191 0.05235602
##  7             6   192 0.04166667
##  8             7   177 0.03389831
##  9             8   191 0.03664921
## 10             9   140 0.01428571
## # ... with 897 more rows
…
group_by(data1,AVG_CALL_TIME)%>%
  summarise(.,count=n(),pers=mean(TARGET,na.rm=TRUE))

## # A tibble: 1,461 x 3
##    AVG_CALL_TIME count       pers
##            <int> <int>      <dbl>
##  1             0 10332 0.04684475
##  2             1   331 0.06344411
##  3             2   227 0.05726872
##  4             3   203 0.02955665
##  5             4   185 0.06486486
##  6             5   167 0.04790419
##  7             6   158 0.04430380
##  8             7   185 0.03783784
##  9             8   157 0.05732484
## 10             9   174 0.05747126
## # ... with 1,451 more rows
…
